^C:\USERS\OLEG\APPDATA\LOCAL\TEMP\.NETFRAMEWORK,VERSION=V4.5.ASSEMBLYATTRIBUTES.CPP
C:\USERS\OLEG\GOOGLE диск\PROJECTS\MLITA_LETI\MLITA_LETI\DEBUG\VC120.PDB
C:\USERS\OLEG\GOOGLE Диск\PROJECTS\MLITA_LETI\MLITA_LETI\DEBUG\.NETFRAMEWORK,VERSION=V4.5.ASSEMBLYATTRIBUTES.OBJ
^C:\USERS\OLEG\GOOGLE ДИСК\PROJECTS\MLITA_LETI\MLITA_LETI\SEMANTICS.CPP|C:\USERS\OLEG\GOOGLE ДИСК\PROJECTS\MLITA_LETI\MLITA_LETI\TEMPLATE.CPP
C:\USERS\OLEG\GOOGLE диск\PROJECTS\MLITA_LETI\MLITA_LETI\DEBUG\VC120.PDB
C:\USERS\OLEG\GOOGLE Диск\PROJECTS\MLITA_LETI\MLITA_LETI\DEBUG\TEMPLATE.OBJ
C:\USERS\OLEG\GOOGLE Диск\PROJECTS\MLITA_LETI\MLITA_LETI\DEBUG\SEMANTICS.OBJ
^C:\USERS\OLEG\GOOGLE ДИСК\PROJECTS\MLITA_LETI\MLITA_LETI\STDAFX.CPP
C:\USERS\OLEG\GOOGLE Диск\PROJECTS\MLITA_LETI\MLITA_LETI\DEBUG\MLITA_LETI.PCH
C:\USERS\OLEG\GOOGLE диск\PROJECTS\MLITA_LETI\MLITA_LETI\DEBUG\VC120.PDB
C:\USERS\OLEG\GOOGLE Диск\PROJECTS\MLITA_LETI\MLITA_LETI\DEBUG\STDAFX.OBJ
^C:\USERS\OLEG\GOOGLE ДИСК\PROJECTS\MLITA_LETI\MLITA_LETI\ASSEMBLYINFO.CPP|C:\USERS\OLEG\GOOGLE ДИСК\PROJECTS\MLITA_LETI\MLITA_LETI\SEMANTICS.CPP|C:\USERS\OLEG\GOOGLE ДИСК\PROJECTS\MLITA_LETI\MLITA_LETI\TEMPLATE.CPP
C:\USERS\OLEG\GOOGLE диск\PROJECTS\MLITA_LETI\MLITA_LETI\DEBUG\VC120.PDB
C:\USERS\OLEG\GOOGLE Диск\PROJECTS\MLITA_LETI\MLITA_LETI\DEBUG\TEMPLATE.OBJ
C:\USERS\OLEG\GOOGLE Диск\PROJECTS\MLITA_LETI\MLITA_LETI\DEBUG\SEMANTICS.OBJ
C:\USERS\OLEG\GOOGLE Диск\PROJECTS\MLITA_LETI\MLITA_LETI\DEBUG\ASSEMBLYINFO.OBJ
^C:\USERS\OLEG\GOOGLE ДИСК\PROJECTS\MLITA_LETI\MLITA_LETI\ASSEMBLYINFO.CPP
C:\USERS\OLEG\GOOGLE ДИСК\PROJECTS\MLITA_LETI\MLITA_LETI\DEBUG\VC120.PDB
^C:\USERS\OLEG\GOOGLE ДИСК\PROJECTS\MLITA_LETI\MLITA_LETI\SEMANTICS.CPP
C:\USERS\OLEG\GOOGLE ДИСК\PROJECTS\MLITA_LETI\MLITA_LETI\DEBUG\VC120.PDB
^C:\USERS\OLEG\GOOGLE ДИСК\PROJECTS\MLITA_LETI\MLITA_LETI\TEMPLATE.CPP
C:\USERS\OLEG\GOOGLE ДИСК\PROJECTS\MLITA_LETI\MLITA_LETI\DEBUG\VC120.PDB
