^C:\USERS\OLEG\GOOGLE ДИСК\PROJECTS\MLITA_LETI\MLITA_LETI\STDAFX.CPP
C:\USERS\OLEG\GOOGLE Диск\PROJECTS\MLITA_LETI\MLITA_LETI\RELEASE\MLITA_LETI.PCH
C:\USERS\OLEG\GOOGLE диск\PROJECTS\MLITA_LETI\MLITA_LETI\RELEASE\VC120.PDB
C:\USERS\OLEG\GOOGLE Диск\PROJECTS\MLITA_LETI\MLITA_LETI\RELEASE\STDAFX.OBJ
^C:\USERS\OLEG\GOOGLE ДИСК\PROJECTS\MLITA_LETI\MLITA_LETI\ASSEMBLYINFO.CPP|C:\USERS\OLEG\GOOGLE ДИСК\PROJECTS\MLITA_LETI\MLITA_LETI\SEMANTICS.CPP|C:\USERS\OLEG\GOOGLE ДИСК\PROJECTS\MLITA_LETI\MLITA_LETI\TEMPLATE.CPP
C:\USERS\OLEG\GOOGLE диск\PROJECTS\MLITA_LETI\MLITA_LETI\RELEASE\VC120.PDB
C:\USERS\OLEG\GOOGLE Диск\PROJECTS\MLITA_LETI\MLITA_LETI\RELEASE\TEMPLATE.OBJ
C:\USERS\OLEG\GOOGLE Диск\PROJECTS\MLITA_LETI\MLITA_LETI\RELEASE\SEMANTICS.OBJ
C:\USERS\OLEG\GOOGLE Диск\PROJECTS\MLITA_LETI\MLITA_LETI\RELEASE\ASSEMBLYINFO.OBJ
^C:\USERS\OLEG\GOOGLE ДИСК\PROJECTS\MLITA_LETI\MLITA_LETI\ASSEMBLYINFO.CPP
C:\USERS\OLEG\GOOGLE ДИСК\PROJECTS\MLITA_LETI\MLITA_LETI\RELEASE\VC120.PDB
^C:\USERS\OLEG\APPDATA\LOCAL\TEMP\.NETFRAMEWORK,VERSION=V4.5.ASSEMBLYATTRIBUTES.CPP
C:\USERS\OLEG\GOOGLE диск\PROJECTS\MLITA_LETI\MLITA_LETI\RELEASE\VC120.PDB
C:\USERS\OLEG\GOOGLE Диск\PROJECTS\MLITA_LETI\MLITA_LETI\RELEASE\.NETFRAMEWORK,VERSION=V4.5.ASSEMBLYATTRIBUTES.OBJ
